Ceas/simulation/qsim/Num0_12.msim.vcd
$comment
	File created using the following command:
		vcd file Num0_12.msim.vcd -direction
$end
$date
	Fri Feb 10 13:17:15 2023
$end
$version
	ModelSim Version 2020.1
$end
$timescale
	1ps
$end

$scope module numm_vhd_vec_tst $end
$var wire 1 ! CkM $end
$var wire 1 " QuM0 $end
$var wire 1 # QuM1 $end
$var wire 1 $ QuM2 $end
$var wire 1 % QuM3 $end
$var wire 1 & QzM0 $end
$var wire 1 ' QzM1 $end
$var wire 1 ( QzM2 $end
$var wire 1 ) ResM $end

$scope module i1 $end
$var wire 1 * gnd $end
$var wire 1 + vcc $end
$var wire 1 , unknown $end
$var wire 1 - devoe $end
$var wire 1 . devclrn $end
$var wire 1 / devpor $end
$var wire 1 0 ww_devoe $end
$var wire 1 1 ww_devclrn $end
$var wire 1 2 ww_devpor $end
$var wire 1 3 ww_QuM3 $end
$var wire 1 4 ww_CkM $end
$var wire 1 5 ww_ResM $end
$var wire 1 6 ww_QuM2 $end
$var wire 1 7 ww_QuM1 $end
$var wire 1 8 ww_QuM0 $end
$var wire 1 9 ww_QzM2 $end
$var wire 1 : ww_QzM0 $end
$var wire 1 ; ww_QzM1 $end
$var wire 1 < \QuM3~output_o\ $end
$var wire 1 = \QuM2~output_o\ $end
$var wire 1 > \QuM1~output_o\ $end
$var wire 1 ? \QuM0~output_o\ $end
$var wire 1 @ \QzM2~output_o\ $end
$var wire 1 A \QzM0~output_o\ $end
$var wire 1 B \QzM1~output_o\ $end
$var wire 1 C \CkM~input_o\ $end
$var wire 1 D \CkM~inputclkctrl_outclk\ $end
$var wire 1 E \inst|inst~0_combout\ $end
$var wire 1 F \ResM~input_o\ $end
$var wire 1 G \ResM~inputclkctrl_outclk\ $end
$var wire 1 H \inst|inst~q\ $end
$var wire 1 I \inst|inst1~0_combout\ $end
$var wire 1 J \inst|inst1~q\ $end
$var wire 1 K \inst|inst2~0_combout\ $end
$var wire 1 L \inst|inst2~q\ $end
$var wire 1 M \inst|inst3~0_combout\ $end
$var wire 1 N \inst|inst3~q\ $end
$var wire 1 O \inst|inst3~clkctrl_outclk\ $end
$var wire 1 P \inst1|inst~0_combout\ $end
$var wire 1 Q \inst1|inst~q\ $end
$var wire 1 R \inst1|inst1~0_combout\ $end
$var wire 1 S \inst1|inst1~q\ $end
$var wire 1 T \inst1|inst2~0_combout\ $end
$var wire 1 U \inst1|inst2~q\ $end
$var wire 1 V \inst|ALT_INV_inst3~clkctrl_outclk\ $end
$var wire 1 W \inst1|ALT_INV_inst1~q\ $end
$var wire 1 X \inst1|ALT_INV_inst~q\ $end
$var wire 1 Y \inst1|ALT_INV_inst2~q\ $end
$var wire 1 Z \inst|ALT_INV_inst~q\ $end
$var wire 1 [ \inst|ALT_INV_inst1~q\ $end
$var wire 1 \ \inst|ALT_INV_inst2~q\ $end
$var wire 1 ] \inst|ALT_INV_inst3~q\ $end
$upscope $end
$upscope $end
$enddefinitions $end
#0
$dumpvars
0!
0"
0#
0$
0%
0&
0'
0(
1)
0*
1+
x,
1-
1.
1/
10
11
12
03
04
15
06
07
08
09
0:
0;
0<
0=
0>
0?
0@
0A
0B
xC
xD
1E
xF
xG
0H
xI
0J
xK
0L
xM
0N
0O
1P
0Q
xR
0S
xT
0U
1V
1W
1X
1Y
1Z
1[
1\
1]
$end
#309
0K
#314
0T
#315
0I
#480
1F
#535
0R
#573
0C
#834
1G
#918
0D
#2329
0M
#10000
1!
14
#10488
1C
#10842
1D
#12412
1H
0Z
#12748
0E
#12903
1I
#15453
1?
18
1"
#20000
0!
04
#20573
0C
#20918
0D
#30000
1!
14
#30488
1C
#30842
1D
#32412
1J
0H
1Z
0[
#32720
1K
#32779
1E
#32946
0K
#35326
1>
17
1#
#35485
0?
08
0"
#40000
0!
04
#40573
0C
#40918
0D
#50000
1!
14
#50488
1C
#50842
1D
#52412
1H
0Z
#52748
0E
#52891
0I
#52984
1K
#55453
1?
18
1"
#60000
0!
04
#60573
0C
#60918
0D
#70000
1!
14
#70488
1C
#70842
1D
#72412
1L
0J
0H
1Z
1[
0\
#72779
1E
#75335
1=
16
1$
#75354
0>
07
0#
#75485
0?
08
0"
#80000
0!
04
#80573
0C
#80918
0D
#90000
1!
14
#90488
1C
#90842
1D
#92412
1H
0Z
#92748
0E
#92903
1I
#95453
1?
18
1"
#100000
0!
04
#100573
0C
#100918
0D
#110000
1!
14
#110488
1C
#110842
1D
#112412
1J
0H
1Z
0[
#112717
0K
#112779
1E
#112953
1K
#115326
1>
17
1#
#115485
0?
08
0"
#120000
0!
04
#120573
0C
#120918
0D
#130000
1!
14
#130488
1C
#130842
1D
#132412
1H
0Z
#132748
0E
#132891
0I
#132901
1M
#132977
0K
#135453
1?
18
1"
#140000
0!
04
#140573
0C
#140918
0D
#150000
1!
14
#150488
1C
#150842
1D
#152412
1N
0L
0J
0H
1Z
1[
1\
0]
#152728
0M
#152779
1E
#153323
1O
0V
#154709
1M
#155354
0>
07
0#
#155365
0=
06
0$
#155485
0?
08
0"
#157090
1<
13
1%
#160000
0!
04
#160573
0C
#160918
0D
#170000
1!
14
#170488
1C
#170842
1D
#172412
1H
0Z
#172748
0E
#172889
0M
#175453
1?
18
1"
#180000
0!
04
#180573
0C
#180918
0D
#190000
1!
14
#190488
1C
#190842
1D
#192412
0N
0H
1Z
1]
#192779
1E
#192897
1M
#193320
0O
1V
#194741
0M
#194936
1Q
0X
#195314
0P
#195485
0?
08
0"
#195490
1R
#197200
0<
03
0%
#197781
1A
1:
1&
#200000
0!
04
#200573
0C
#200918
0D
#210000
1!
14
#210488
1C
#210842
1D
#212412
1H
0Z
#212748
0E
#212903
1I
#215453
1?
18
1"
#220000
0!
04
#220573
0C
#220918
0D
#230000
1!
14
#230488
1C
#230842
1D
#232412
1J
0H
1Z
0[
#232720
1K
#232779
1E
#232946
0K
#235326
1>
17
1#
#235485
0?
08
0"
#240000
0!
04
#240573
0C
#240918
0D
#250000
1!
14
#250488
1C
#250842
1D
#252412
1H
0Z
#252748
0E
#252891
0I
#252984
1K
#255453
1?
18
1"
#260000
0!
04
#260573
0C
#260918
0D
#270000
1!
14
#270488
1C
#270842
1D
#272412
1L
0J
0H
1Z
1[
0\
#272779
1E
#275335
1=
16
1$
#275354
0>
07
0#
#275485
0?
08
0"
#280000
0!
04
#280573
0C
#280918
0D
#290000
1!
14
#290488
1C
#290842
1D
#292412
1H
0Z
#292748
0E
#292903
1I
#295453
1?
18
1"
#300000
0!
04
#300573
0C
#300918
0D
#310000
1!
14
#310488
1C
#310842
1D
#312412
1J
0H
1Z
0[
#312717
0K
#312779
1E
#312953
1K
#315326
1>
17
1#
#315485
0?
08
0"
#320000
0!
04
#320573
0C
#320918
0D
#330000
1!
14
#330488
1C
#330842
1D
#332412
1H
0Z
#332748
0E
#332891
0I
#332901
1M
#332977
0K
#335453
1?
18
1"
#340000
0!
04
#340573
0C
#340918
0D
#350000
1!
14
#350488
1C
#350842
1D
#352412
1N
0L
0J
0H
1Z
1[
1\
0]
#352728
0M
#352779
1E
#353323
1O
0V
#354709
1M
#355354
0>
07
0#
#355365
0=
06
0$
#355485
0?
08
0"
#357090
1<
13
1%
#360000
0!
04
#360573
0C
#360918
0D
#370000
1!
14
#370488
1C
#370842
1D
#372412
1H
0Z
#372748
0E
#372889
0M
#375453
1?
18
1"
#380000
0!
04
#380573
0C
#380918
0D
#390000
1!
14
#390488
1C
#390842
1D
#392412
0N
0H
1Z
1]
#392779
1E
#392897
1M
#393320
0O
1V
#394741
0M
#394936
1S
0Q
1X
0W
#395261
1T
#395314
0R
#395348
1P
#395466
0T
#395481
1R
#395485
0?
08
0"
#397200
0<
03
0%
#397801
1B
1;
1'
#397817
0A
0:
0&
#400000
0!
04
#400573
0C
#400918
0D
#410000
1!
14
#410488
1C
#410842
1D
#412412
1H
0Z
#412748
0E
#412903
1I
#415453
1?
18
1"
#420000
0!
04
#420573
0C
#420918
0D
#430000
1!
14
#430488
1C
#430842
1D
#432412
1J
0H
1Z
0[
#432720
1K
#432779
1E
#432946
0K
#435326
1>
17
1#
#435485
0?
08
0"
#440000
0!
04
#440573
0C
#440918
0D
#450000
1!
14
#450488
1C
#450842
1D
#452412
1H
0Z
#452748
0E
#452891
0I
#452984
1K
#455453
1?
18
1"
#460000
0!
04
#460573
0C
#460918
0D
#470000
1!
14
#470488
1C
#470842
1D
#472412
1L
0J
0H
1Z
1[
0\
#472779
1E
#475335
1=
16
1$
#475354
0>
07
0#
#475485
0?
08
0"
#480000
0!
04
#480573
0C
#480918
0D
#490000
1!
14
#490488
1C
#490842
1D
#492412
1H
0Z
#492748
0E
#492903
1I
#495453
1?
18
1"
#500000
0!
04
#500573
0C
#500918
0D
#510000
1!
14
#510488
1C
#510842
1D
#512412
1J
0H
1Z
0[
#512717
0K
#512779
1E
#512953
1K
#515326
1>
17
1#
#515485
0?
08
0"
#520000
0!
04
#520573
0C
#520918
0D
#530000
1!
14
#530488
1C
#530842
1D
#532412
1H
0Z
#532748
0E
#532891
0I
#532901
1M
#532977
0K
#535453
1?
18
1"
#540000
0!
04
#540573
0C
#540918
0D
#550000
1!
14
#550488
1C
#550842
1D
#552412
1N
0L
0J
0H
1Z
1[
1\
0]
#552728
0M
#552779
1E
#553323
1O
0V
#554709
1M
#555354
0>
07
0#
#555365
0=
06
0$
#555485
0?
08
0"
#557090
1<
13
1%
#560000
0!
04
#560573
0C
#560918
0D
#570000
1!
14
#570488
1C
#570842
1D
#572412
1H
0Z
#572748
0E
#572889
0M
#575453
1?
18
1"
#580000
0!
04
#580573
0C
#580918
0D
#590000
1!
14
#590488
1C
#590842
1D
#592412
0N
0H
1Z
1]
#592779
1E
#592897
1M
#593320
0O
1V
#594741
0M
#594936
1Q
0X
#595314
0P
#595480
0R
#595485
0?
1T
08
0"
#597200
0<
03
0%
#597781
1A
1:
1&
#600000
0!
04
#600573
0C
#600918
0D
#610000
1!
14
#610488
1C
#610842
1D
#612412
1H
0Z
#612748
0E
#612903
1I
#615453
1?
18
1"
#620000
0!
04
#620573
0C
#620918
0D
#630000
1!
14
#630488
1C
#630842
1D
#632412
1J
0H
1Z
0[
#632720
1K
#632779
1E
#632946
0K
#635326
1>
17
1#
#635485
0?
08
0"
#640000
0!
04
#640573
0C
#640918
0D
#650000
1!
14
#650488
1C
#650842
1D
#652412
1H
0Z
#652748
0E
#652891
0I
#652984
1K
#655453
1?
18
1"
#660000
0!
04
#660573
0C
#660918
0D
#670000
1!
14
#670488
1C
#670842
1D
#672412
1L
0J
0H
1Z
1[
0\
#672779
1E
#675335
1=
16
1$
#675354
0>
07
0#
#675485
0?
08
0"
#680000
0!
04
#680573
0C
#680918
0D
#690000
1!
14
#690488
1C
#690842
1D
#692412
1H
0Z
#692748
0E
#692903
1I
#695453
1?
18
1"
#700000
0!
04
#700573
0C
#700918
0D
#710000
1!
14
#710488
1C
#710842
1D
#712412
1J
0H
1Z
0[
#712717
0K
#712779
1E
#712953
1K
#715326
1>
17
1#
#715485
0?
08
0"
#720000
0!
04
#720573
0C
#720918
0D
#730000
1!
14
#730488
1C
#730842
1D
#732412
1H
0Z
#732748
0E
#732891
0I
#732901
1M
#732977
0K
#735453
1?
18
1"
#740000
0!
04
#740573
0C
#740918
0D
#750000
1!
14
#750488
1C
#750842
1D
#752412
1N
0L
0J
0H
1Z
1[
1\
0]
#752728
0M
#752779
1E
#753323
1O
0V
#754709
1M
#755354
0>
07
0#
#755365
0=
06
0$
#755485
0?
08
0"
#757090
1<
13
1%
#760000
0!
04
#760573
0C
#760918
0D
#770000
1!
14
#770488
1C
#770842
1D
#772412
1H
0Z
#772748
0E
#772889
0M
#775453
1?
18
1"
#780000
0!
04
#780573
0C
#780918
0D
#790000
1!
14
#790488
1C
#790842
1D
#792412
0N
0H
1Z
1]
#792779
1E
#792897
1M
#793320
0O
1V
#794741
0M
#794936
1U
0S
0Q
1X
1W
0Y
#795250
0T
#795348
1P
#795476
1T
#795485
0?
08
0"
#797200
0<
03
0%
#797716
1@
19
1(
#797817
0A
0:
0&
#797831
0B
0;
0'
#800000
0!
04
#800573
0C
#800918
0D
#810000
1!
14
#810488
1C
#810842
1D
#812412
1H
0Z
#812748
0E
#812903
1I
#815453
1?
18
1"
#820000
0!
04
#820573
0C
#820918
0D
#830000
1!
14
#830488
1C
#830842
1D
#832412
1J
0H
1Z
0[
#832720
1K
#832779
1E
#832946
0K
#835326
1>
17
1#
#835485
0?
08
0"
#840000
0!
04
#840573
0C
#840918
0D
#850000
1!
14
#850488
1C
#850842
1D
#852412
1H
0Z
#852748
0E
#852891
0I
#852984
1K
#855453
1?
18
1"
#860000
0!
04
#860573
0C
#860918
0D
#870000
1!
14
#870488
1C
#870842
1D
#872412
1L
0J
0H
1Z
1[
0\
#872779
1E
#875335
1=
16
1$
#875354
0>
07
0#
#875485
0?
08
0"
#880000
0!
04
#880573
0C
#880918
0D
#890000
1!
14
#890488
1C
#890842
1D
#892412
1H
0Z
#892748
0E
#892903
1I
#895453
1?
18
1"
#900000
0!
04
#900573
0C
#900918
0D
#910000
1!
14
#910488
1C
#910842
1D
#912412
1J
0H
1Z
0[
#912717
0K
#912779
1E
#912953
1K
#915326
1>
17
1#
#915485
0?
08
0"
#920000
0!
04
#920573
0C
#920918
0D
#930000
1!
14
#930488
1C
#930842
1D
#932412
1H
0Z
#932748
0E
#932891
0I
#932901
1M
#932977
0K
#935453
1?
18
1"
#940000
0!
04
#940573
0C
#940918
0D
#950000
1!
14
#950488
1C
#950842
1D
#952412
1N
0L
0J
0H
1Z
1[
1\
0]
#952728
0M
#952779
1E
#953323
1O
0V
#954709
1M
#955354
0>
07
0#
#955365
0=
06
0$
#955485
0?
08
0"
#957090
1<
13
1%
#960000
0!
04
#960573
0C
#960918
0D
#970000
1!
14
#970488
1C
#970842
1D
#972412
1H
0Z
#972748
0E
#972889
0M
#975453
1?
18
1"
#980000
0!
04
#980573
0C
#980918
0D
#990000
1!
14
#990488
1C
#990842
1D
#992412
0N
0H
1Z
1]
#992779
1E
#992897
1M
#993320
0O
1V
#994741
0M
#994936
1Q
0X
#995314
0P
#995475
0T
#995485
0?
08
0"
#997200
0<
03
0%
#997781
1A
1:
1&
